<?xml version="1.0" encoding="utf-8"?>
<!-- Generator: Adobe Illustrator 18.0.0, SVG Export Plug-In . SVG Version: 6.00 Build 0)  -->
<!DOCTYPE svg PUBLIC "-//W3C//DTD SVG 1.1//EN" "http://www.w3.org/Graphics/SVG/1.1/DTD/svg11.dtd">
<svg version="1.1" id="Calque_1" xmlns="http://www.w3.org/2000/svg" xmlns:xlink="http://www.w3.org/1999/xlink" x="0px" y="0px"
	 viewBox="0 0 896.9 1024" enable-background="new 0 0 896.9 1024" xml:space="preserve">
<path fill="#3C3C3C" d="M640.9,63.9c-141.4,0-256,114.6-256,256c0,19.6,2.2,38.6,6.4,56.9L0,768v64l64,64h128l64-64v-64h64v-64h64
	v-64h128l70.8-70.8c18.7,4.3,38.1,6.6,58.1,6.6c141.4,0,256-114.6,256-256S782.2,63.9,640.9,63.9z M384,512L64,832v-64l320-320V512z
	 M704,320c-35.3,0-64-28.7-64-64s28.7-64,64-64s64,28.7,64,64S739.3,320,704,320z"/>
</svg>
